\relax 
\@writefile{toc}{\contentsline {section}{\numberline {1}Basic \LaTeX  stuff}{1}}
\@writefile{toc}{\contentsline {section}{\numberline {2}The Listings Package}{1}}
\@writefile{lol}{\contentsline {lstlisting}{junk.py}{1}}
